mass_X_d_1000_mass_pi_d_10_tau_pi_d_0p001
mass_X_d_1000_mass_pi_d_10_tau_pi_d_0p1
mass_X_d_1000_mass_pi_d_10_tau_pi_d_100
mass_X_d_1000_mass_pi_d_10_tau_pi_d_150
mass_X_d_1000_mass_pi_d_10_tau_pi_d_1
mass_X_d_1000_mass_pi_d_10_tau_pi_d_225
mass_X_d_1000_mass_pi_d_10_tau_pi_d_25
mass_X_d_1000_mass_pi_d_10_tau_pi_d_2
mass_X_d_1000_mass_pi_d_10_tau_pi_d_300
mass_X_d_1000_mass_pi_d_10_tau_pi_d_45
mass_X_d_1000_mass_pi_d_10_tau_pi_d_500
mass_X_d_1000_mass_pi_d_10_tau_pi_d_5
mass_X_d_1000_mass_pi_d_10_tau_pi_d_60
mass_X_d_1000_mass_pi_d_1_tau_pi_d_0p001
mass_X_d_1000_mass_pi_d_1_tau_pi_d_0p1
mass_X_d_1000_mass_pi_d_1_tau_pi_d_100
mass_X_d_1000_mass_pi_d_1_tau_pi_d_150
mass_X_d_1000_mass_pi_d_1_tau_pi_d_1
mass_X_d_1000_mass_pi_d_1_tau_pi_d_225
mass_X_d_1000_mass_pi_d_1_tau_pi_d_25
mass_X_d_1000_mass_pi_d_1_tau_pi_d_2
mass_X_d_1000_mass_pi_d_1_tau_pi_d_300
mass_X_d_1000_mass_pi_d_1_tau_pi_d_45
mass_X_d_1000_mass_pi_d_1_tau_pi_d_500
mass_X_d_1000_mass_pi_d_1_tau_pi_d_5
mass_X_d_1000_mass_pi_d_1_tau_pi_d_60
mass_X_d_1000_mass_pi_d_2_tau_pi_d_0p001
mass_X_d_1000_mass_pi_d_2_tau_pi_d_0p1
mass_X_d_1000_mass_pi_d_2_tau_pi_d_100
mass_X_d_1000_mass_pi_d_2_tau_pi_d_150
mass_X_d_1000_mass_pi_d_2_tau_pi_d_1
mass_X_d_1000_mass_pi_d_2_tau_pi_d_225
mass_X_d_1000_mass_pi_d_2_tau_pi_d_25
mass_X_d_1000_mass_pi_d_2_tau_pi_d_2
mass_X_d_1000_mass_pi_d_2_tau_pi_d_300
mass_X_d_1000_mass_pi_d_2_tau_pi_d_45
mass_X_d_1000_mass_pi_d_2_tau_pi_d_500
mass_X_d_1000_mass_pi_d_2_tau_pi_d_5
mass_X_d_1000_mass_pi_d_2_tau_pi_d_60
mass_X_d_1000_mass_pi_d_5_tau_pi_d_0p001
mass_X_d_1000_mass_pi_d_5_tau_pi_d_0p1
mass_X_d_1000_mass_pi_d_5_tau_pi_d_100
mass_X_d_1000_mass_pi_d_5_tau_pi_d_150
mass_X_d_1000_mass_pi_d_5_tau_pi_d_1
mass_X_d_1000_mass_pi_d_5_tau_pi_d_225
mass_X_d_1000_mass_pi_d_5_tau_pi_d_25
mass_X_d_1000_mass_pi_d_5_tau_pi_d_2
mass_X_d_1000_mass_pi_d_5_tau_pi_d_300
mass_X_d_1000_mass_pi_d_5_tau_pi_d_45
mass_X_d_1000_mass_pi_d_5_tau_pi_d_500
mass_X_d_1000_mass_pi_d_5_tau_pi_d_5
mass_X_d_1000_mass_pi_d_5_tau_pi_d_60
mass_X_d_1250_mass_pi_d_10_tau_pi_d_0p001
mass_X_d_1250_mass_pi_d_10_tau_pi_d_0p1
mass_X_d_1250_mass_pi_d_10_tau_pi_d_100
mass_X_d_1250_mass_pi_d_10_tau_pi_d_150
mass_X_d_1250_mass_pi_d_10_tau_pi_d_1
mass_X_d_1250_mass_pi_d_10_tau_pi_d_225
mass_X_d_1250_mass_pi_d_10_tau_pi_d_25
mass_X_d_1250_mass_pi_d_10_tau_pi_d_2
mass_X_d_1250_mass_pi_d_10_tau_pi_d_300
mass_X_d_1250_mass_pi_d_10_tau_pi_d_45
mass_X_d_1250_mass_pi_d_10_tau_pi_d_500
mass_X_d_1250_mass_pi_d_10_tau_pi_d_5
mass_X_d_1250_mass_pi_d_10_tau_pi_d_60
mass_X_d_1250_mass_pi_d_1_tau_pi_d_0p001
mass_X_d_1250_mass_pi_d_1_tau_pi_d_0p1
mass_X_d_1250_mass_pi_d_1_tau_pi_d_100
mass_X_d_1250_mass_pi_d_1_tau_pi_d_150
mass_X_d_1250_mass_pi_d_1_tau_pi_d_1
mass_X_d_1250_mass_pi_d_1_tau_pi_d_225
mass_X_d_1250_mass_pi_d_1_tau_pi_d_25
mass_X_d_1250_mass_pi_d_1_tau_pi_d_2
mass_X_d_1250_mass_pi_d_1_tau_pi_d_300
mass_X_d_1250_mass_pi_d_1_tau_pi_d_45
mass_X_d_1250_mass_pi_d_1_tau_pi_d_500
mass_X_d_1250_mass_pi_d_1_tau_pi_d_5
mass_X_d_1250_mass_pi_d_1_tau_pi_d_60
mass_X_d_1250_mass_pi_d_2_tau_pi_d_0p001
mass_X_d_1250_mass_pi_d_2_tau_pi_d_0p1
mass_X_d_1250_mass_pi_d_2_tau_pi_d_100
mass_X_d_1250_mass_pi_d_2_tau_pi_d_150
mass_X_d_1250_mass_pi_d_2_tau_pi_d_1
mass_X_d_1250_mass_pi_d_2_tau_pi_d_225
mass_X_d_1250_mass_pi_d_2_tau_pi_d_25
mass_X_d_1250_mass_pi_d_2_tau_pi_d_2
mass_X_d_1250_mass_pi_d_2_tau_pi_d_300
mass_X_d_1250_mass_pi_d_2_tau_pi_d_45
mass_X_d_1250_mass_pi_d_2_tau_pi_d_500
mass_X_d_1250_mass_pi_d_2_tau_pi_d_5
mass_X_d_1250_mass_pi_d_2_tau_pi_d_60
mass_X_d_1250_mass_pi_d_5_tau_pi_d_0p001
mass_X_d_1250_mass_pi_d_5_tau_pi_d_0p1
mass_X_d_1250_mass_pi_d_5_tau_pi_d_100
mass_X_d_1250_mass_pi_d_5_tau_pi_d_150
mass_X_d_1250_mass_pi_d_5_tau_pi_d_1
mass_X_d_1250_mass_pi_d_5_tau_pi_d_225
mass_X_d_1250_mass_pi_d_5_tau_pi_d_25
mass_X_d_1250_mass_pi_d_5_tau_pi_d_2
mass_X_d_1250_mass_pi_d_5_tau_pi_d_300
mass_X_d_1250_mass_pi_d_5_tau_pi_d_45
mass_X_d_1250_mass_pi_d_5_tau_pi_d_500
mass_X_d_1250_mass_pi_d_5_tau_pi_d_5
mass_X_d_1250_mass_pi_d_5_tau_pi_d_60
mass_X_d_1500_mass_pi_d_10_tau_pi_d_0p001
mass_X_d_1500_mass_pi_d_10_tau_pi_d_0p1
mass_X_d_1500_mass_pi_d_10_tau_pi_d_100
mass_X_d_1500_mass_pi_d_10_tau_pi_d_150
mass_X_d_1500_mass_pi_d_10_tau_pi_d_1
mass_X_d_1500_mass_pi_d_10_tau_pi_d_225
mass_X_d_1500_mass_pi_d_10_tau_pi_d_25
mass_X_d_1500_mass_pi_d_10_tau_pi_d_2
mass_X_d_1500_mass_pi_d_10_tau_pi_d_300
mass_X_d_1500_mass_pi_d_10_tau_pi_d_45
mass_X_d_1500_mass_pi_d_10_tau_pi_d_500
mass_X_d_1500_mass_pi_d_10_tau_pi_d_5
mass_X_d_1500_mass_pi_d_10_tau_pi_d_60
mass_X_d_1500_mass_pi_d_1_tau_pi_d_0p001
mass_X_d_1500_mass_pi_d_1_tau_pi_d_0p1
mass_X_d_1500_mass_pi_d_1_tau_pi_d_100
mass_X_d_1500_mass_pi_d_1_tau_pi_d_150
mass_X_d_1500_mass_pi_d_1_tau_pi_d_1
mass_X_d_1500_mass_pi_d_1_tau_pi_d_225
mass_X_d_1500_mass_pi_d_1_tau_pi_d_25
mass_X_d_1500_mass_pi_d_1_tau_pi_d_2
mass_X_d_1500_mass_pi_d_1_tau_pi_d_300
mass_X_d_1500_mass_pi_d_1_tau_pi_d_45
mass_X_d_1500_mass_pi_d_1_tau_pi_d_500
mass_X_d_1500_mass_pi_d_1_tau_pi_d_5
mass_X_d_1500_mass_pi_d_1_tau_pi_d_60
mass_X_d_1500_mass_pi_d_2_tau_pi_d_0p001
mass_X_d_1500_mass_pi_d_2_tau_pi_d_0p1
mass_X_d_1500_mass_pi_d_2_tau_pi_d_100
mass_X_d_1500_mass_pi_d_2_tau_pi_d_150
mass_X_d_1500_mass_pi_d_2_tau_pi_d_1
mass_X_d_1500_mass_pi_d_2_tau_pi_d_225
mass_X_d_1500_mass_pi_d_2_tau_pi_d_25
mass_X_d_1500_mass_pi_d_2_tau_pi_d_2
mass_X_d_1500_mass_pi_d_2_tau_pi_d_300
mass_X_d_1500_mass_pi_d_2_tau_pi_d_45
mass_X_d_1500_mass_pi_d_2_tau_pi_d_500
mass_X_d_1500_mass_pi_d_2_tau_pi_d_5
mass_X_d_1500_mass_pi_d_2_tau_pi_d_60
mass_X_d_1500_mass_pi_d_5_tau_pi_d_0p001
mass_X_d_1500_mass_pi_d_5_tau_pi_d_0p1
mass_X_d_1500_mass_pi_d_5_tau_pi_d_100
mass_X_d_1500_mass_pi_d_5_tau_pi_d_150
mass_X_d_1500_mass_pi_d_5_tau_pi_d_1
mass_X_d_1500_mass_pi_d_5_tau_pi_d_225
mass_X_d_1500_mass_pi_d_5_tau_pi_d_25
mass_X_d_1500_mass_pi_d_5_tau_pi_d_2
mass_X_d_1500_mass_pi_d_5_tau_pi_d_300
mass_X_d_1500_mass_pi_d_5_tau_pi_d_45
mass_X_d_1500_mass_pi_d_5_tau_pi_d_500
mass_X_d_1500_mass_pi_d_5_tau_pi_d_5
mass_X_d_1500_mass_pi_d_5_tau_pi_d_60
mass_X_d_2000_mass_pi_d_10_tau_pi_d_0p001
mass_X_d_2000_mass_pi_d_10_tau_pi_d_0p1
mass_X_d_2000_mass_pi_d_10_tau_pi_d_100
mass_X_d_2000_mass_pi_d_10_tau_pi_d_150
mass_X_d_2000_mass_pi_d_10_tau_pi_d_1
mass_X_d_2000_mass_pi_d_10_tau_pi_d_225
mass_X_d_2000_mass_pi_d_10_tau_pi_d_25
mass_X_d_2000_mass_pi_d_10_tau_pi_d_2
mass_X_d_2000_mass_pi_d_10_tau_pi_d_300
mass_X_d_2000_mass_pi_d_10_tau_pi_d_45
mass_X_d_2000_mass_pi_d_10_tau_pi_d_500
mass_X_d_2000_mass_pi_d_10_tau_pi_d_5
mass_X_d_2000_mass_pi_d_10_tau_pi_d_60
mass_X_d_2000_mass_pi_d_1_tau_pi_d_0p001
mass_X_d_2000_mass_pi_d_1_tau_pi_d_0p1
mass_X_d_2000_mass_pi_d_1_tau_pi_d_100
mass_X_d_2000_mass_pi_d_1_tau_pi_d_150
mass_X_d_2000_mass_pi_d_1_tau_pi_d_1
mass_X_d_2000_mass_pi_d_1_tau_pi_d_225
mass_X_d_2000_mass_pi_d_1_tau_pi_d_25
mass_X_d_2000_mass_pi_d_1_tau_pi_d_2
mass_X_d_2000_mass_pi_d_1_tau_pi_d_300
mass_X_d_2000_mass_pi_d_1_tau_pi_d_45
mass_X_d_2000_mass_pi_d_1_tau_pi_d_500
mass_X_d_2000_mass_pi_d_1_tau_pi_d_5
mass_X_d_2000_mass_pi_d_1_tau_pi_d_60
mass_X_d_2000_mass_pi_d_2_tau_pi_d_0p001
mass_X_d_2000_mass_pi_d_2_tau_pi_d_0p1
mass_X_d_2000_mass_pi_d_2_tau_pi_d_100
mass_X_d_2000_mass_pi_d_2_tau_pi_d_150
mass_X_d_2000_mass_pi_d_2_tau_pi_d_1
mass_X_d_2000_mass_pi_d_2_tau_pi_d_225
mass_X_d_2000_mass_pi_d_2_tau_pi_d_25
mass_X_d_2000_mass_pi_d_2_tau_pi_d_2
mass_X_d_2000_mass_pi_d_2_tau_pi_d_300
mass_X_d_2000_mass_pi_d_2_tau_pi_d_45
mass_X_d_2000_mass_pi_d_2_tau_pi_d_500
mass_X_d_2000_mass_pi_d_2_tau_pi_d_5
mass_X_d_2000_mass_pi_d_2_tau_pi_d_60
mass_X_d_2000_mass_pi_d_5_tau_pi_d_0p001
mass_X_d_2000_mass_pi_d_5_tau_pi_d_0p1
mass_X_d_2000_mass_pi_d_5_tau_pi_d_100
mass_X_d_2000_mass_pi_d_5_tau_pi_d_150
mass_X_d_2000_mass_pi_d_5_tau_pi_d_1
mass_X_d_2000_mass_pi_d_5_tau_pi_d_225
mass_X_d_2000_mass_pi_d_5_tau_pi_d_25
mass_X_d_2000_mass_pi_d_5_tau_pi_d_2
mass_X_d_2000_mass_pi_d_5_tau_pi_d_300
mass_X_d_2000_mass_pi_d_5_tau_pi_d_45
mass_X_d_2000_mass_pi_d_5_tau_pi_d_500
mass_X_d_2000_mass_pi_d_5_tau_pi_d_5
mass_X_d_2000_mass_pi_d_5_tau_pi_d_60
mass_X_d_400_mass_pi_d_10_tau_pi_d_0p001
mass_X_d_400_mass_pi_d_10_tau_pi_d_0p1
mass_X_d_400_mass_pi_d_10_tau_pi_d_100
mass_X_d_400_mass_pi_d_10_tau_pi_d_150
mass_X_d_400_mass_pi_d_10_tau_pi_d_1
mass_X_d_400_mass_pi_d_10_tau_pi_d_225
mass_X_d_400_mass_pi_d_10_tau_pi_d_25
mass_X_d_400_mass_pi_d_10_tau_pi_d_2
mass_X_d_400_mass_pi_d_10_tau_pi_d_300
mass_X_d_400_mass_pi_d_10_tau_pi_d_45
mass_X_d_400_mass_pi_d_10_tau_pi_d_500
mass_X_d_400_mass_pi_d_10_tau_pi_d_5
mass_X_d_400_mass_pi_d_10_tau_pi_d_60
mass_X_d_400_mass_pi_d_1_tau_pi_d_0p001
mass_X_d_400_mass_pi_d_1_tau_pi_d_0p1
mass_X_d_400_mass_pi_d_1_tau_pi_d_100
mass_X_d_400_mass_pi_d_1_tau_pi_d_150
mass_X_d_400_mass_pi_d_1_tau_pi_d_1
mass_X_d_400_mass_pi_d_1_tau_pi_d_225
mass_X_d_400_mass_pi_d_1_tau_pi_d_25
mass_X_d_400_mass_pi_d_1_tau_pi_d_2
mass_X_d_400_mass_pi_d_1_tau_pi_d_300
mass_X_d_400_mass_pi_d_1_tau_pi_d_45
mass_X_d_400_mass_pi_d_1_tau_pi_d_500
mass_X_d_400_mass_pi_d_1_tau_pi_d_5
mass_X_d_400_mass_pi_d_1_tau_pi_d_60
mass_X_d_400_mass_pi_d_2_tau_pi_d_0p001
mass_X_d_400_mass_pi_d_2_tau_pi_d_0p1
mass_X_d_400_mass_pi_d_2_tau_pi_d_100
mass_X_d_400_mass_pi_d_2_tau_pi_d_150
mass_X_d_400_mass_pi_d_2_tau_pi_d_1
mass_X_d_400_mass_pi_d_2_tau_pi_d_225
mass_X_d_400_mass_pi_d_2_tau_pi_d_25
mass_X_d_400_mass_pi_d_2_tau_pi_d_2
mass_X_d_400_mass_pi_d_2_tau_pi_d_300
mass_X_d_400_mass_pi_d_2_tau_pi_d_45
mass_X_d_400_mass_pi_d_2_tau_pi_d_500
mass_X_d_400_mass_pi_d_2_tau_pi_d_5
mass_X_d_400_mass_pi_d_2_tau_pi_d_60
mass_X_d_400_mass_pi_d_5_tau_pi_d_0p001
mass_X_d_400_mass_pi_d_5_tau_pi_d_0p1
mass_X_d_400_mass_pi_d_5_tau_pi_d_100
mass_X_d_400_mass_pi_d_5_tau_pi_d_150
mass_X_d_400_mass_pi_d_5_tau_pi_d_1
mass_X_d_400_mass_pi_d_5_tau_pi_d_225
mass_X_d_400_mass_pi_d_5_tau_pi_d_25
mass_X_d_400_mass_pi_d_5_tau_pi_d_2
mass_X_d_400_mass_pi_d_5_tau_pi_d_300
mass_X_d_400_mass_pi_d_5_tau_pi_d_45
mass_X_d_400_mass_pi_d_5_tau_pi_d_500
mass_X_d_400_mass_pi_d_5_tau_pi_d_5
mass_X_d_400_mass_pi_d_5_tau_pi_d_60
mass_X_d_600_mass_pi_d_10_tau_pi_d_0p001
mass_X_d_600_mass_pi_d_10_tau_pi_d_0p1
mass_X_d_600_mass_pi_d_10_tau_pi_d_100
mass_X_d_600_mass_pi_d_10_tau_pi_d_150
mass_X_d_600_mass_pi_d_10_tau_pi_d_1
mass_X_d_600_mass_pi_d_10_tau_pi_d_225
mass_X_d_600_mass_pi_d_10_tau_pi_d_25
mass_X_d_600_mass_pi_d_10_tau_pi_d_2
mass_X_d_600_mass_pi_d_10_tau_pi_d_300
mass_X_d_600_mass_pi_d_10_tau_pi_d_45
mass_X_d_600_mass_pi_d_10_tau_pi_d_500
mass_X_d_600_mass_pi_d_10_tau_pi_d_5
mass_X_d_600_mass_pi_d_10_tau_pi_d_60
mass_X_d_600_mass_pi_d_1_tau_pi_d_0p001
mass_X_d_600_mass_pi_d_1_tau_pi_d_0p1
mass_X_d_600_mass_pi_d_1_tau_pi_d_100
mass_X_d_600_mass_pi_d_1_tau_pi_d_150
mass_X_d_600_mass_pi_d_1_tau_pi_d_1
mass_X_d_600_mass_pi_d_1_tau_pi_d_225
mass_X_d_600_mass_pi_d_1_tau_pi_d_25
mass_X_d_600_mass_pi_d_1_tau_pi_d_2
mass_X_d_600_mass_pi_d_1_tau_pi_d_300
mass_X_d_600_mass_pi_d_1_tau_pi_d_45
mass_X_d_600_mass_pi_d_1_tau_pi_d_500
mass_X_d_600_mass_pi_d_1_tau_pi_d_5
mass_X_d_600_mass_pi_d_1_tau_pi_d_60
mass_X_d_600_mass_pi_d_2_tau_pi_d_0p001
mass_X_d_600_mass_pi_d_2_tau_pi_d_0p1
mass_X_d_600_mass_pi_d_2_tau_pi_d_100
mass_X_d_600_mass_pi_d_2_tau_pi_d_150
mass_X_d_600_mass_pi_d_2_tau_pi_d_1
mass_X_d_600_mass_pi_d_2_tau_pi_d_225
mass_X_d_600_mass_pi_d_2_tau_pi_d_25
mass_X_d_600_mass_pi_d_2_tau_pi_d_2
mass_X_d_600_mass_pi_d_2_tau_pi_d_300
mass_X_d_600_mass_pi_d_2_tau_pi_d_45
mass_X_d_600_mass_pi_d_2_tau_pi_d_500
mass_X_d_600_mass_pi_d_2_tau_pi_d_5
mass_X_d_600_mass_pi_d_2_tau_pi_d_60
mass_X_d_600_mass_pi_d_5_tau_pi_d_0p001
mass_X_d_600_mass_pi_d_5_tau_pi_d_0p1
mass_X_d_600_mass_pi_d_5_tau_pi_d_100
mass_X_d_600_mass_pi_d_5_tau_pi_d_150
mass_X_d_600_mass_pi_d_5_tau_pi_d_1
mass_X_d_600_mass_pi_d_5_tau_pi_d_225
mass_X_d_600_mass_pi_d_5_tau_pi_d_25
mass_X_d_600_mass_pi_d_5_tau_pi_d_2
mass_X_d_600_mass_pi_d_5_tau_pi_d_300
mass_X_d_600_mass_pi_d_5_tau_pi_d_45
mass_X_d_600_mass_pi_d_5_tau_pi_d_500
mass_X_d_600_mass_pi_d_5_tau_pi_d_5
mass_X_d_600_mass_pi_d_5_tau_pi_d_60
mass_X_d_800_mass_pi_d_10_tau_pi_d_0p001
mass_X_d_800_mass_pi_d_10_tau_pi_d_0p1
mass_X_d_800_mass_pi_d_10_tau_pi_d_100
mass_X_d_800_mass_pi_d_10_tau_pi_d_150
mass_X_d_800_mass_pi_d_10_tau_pi_d_1
mass_X_d_800_mass_pi_d_10_tau_pi_d_225
mass_X_d_800_mass_pi_d_10_tau_pi_d_25
mass_X_d_800_mass_pi_d_10_tau_pi_d_2
mass_X_d_800_mass_pi_d_10_tau_pi_d_300
mass_X_d_800_mass_pi_d_10_tau_pi_d_45
mass_X_d_800_mass_pi_d_10_tau_pi_d_500
mass_X_d_800_mass_pi_d_10_tau_pi_d_5
mass_X_d_800_mass_pi_d_10_tau_pi_d_60
mass_X_d_800_mass_pi_d_1_tau_pi_d_0p001
mass_X_d_800_mass_pi_d_1_tau_pi_d_0p1
mass_X_d_800_mass_pi_d_1_tau_pi_d_100
mass_X_d_800_mass_pi_d_1_tau_pi_d_150
mass_X_d_800_mass_pi_d_1_tau_pi_d_1
mass_X_d_800_mass_pi_d_1_tau_pi_d_225
mass_X_d_800_mass_pi_d_1_tau_pi_d_25
mass_X_d_800_mass_pi_d_1_tau_pi_d_2
mass_X_d_800_mass_pi_d_1_tau_pi_d_300
mass_X_d_800_mass_pi_d_1_tau_pi_d_45
mass_X_d_800_mass_pi_d_1_tau_pi_d_500
mass_X_d_800_mass_pi_d_1_tau_pi_d_5
mass_X_d_800_mass_pi_d_1_tau_pi_d_60
mass_X_d_800_mass_pi_d_2_tau_pi_d_0p001
mass_X_d_800_mass_pi_d_2_tau_pi_d_0p1
mass_X_d_800_mass_pi_d_2_tau_pi_d_100
mass_X_d_800_mass_pi_d_2_tau_pi_d_150
mass_X_d_800_mass_pi_d_2_tau_pi_d_1
mass_X_d_800_mass_pi_d_2_tau_pi_d_225
mass_X_d_800_mass_pi_d_2_tau_pi_d_25
mass_X_d_800_mass_pi_d_2_tau_pi_d_2
mass_X_d_800_mass_pi_d_2_tau_pi_d_300
mass_X_d_800_mass_pi_d_2_tau_pi_d_45
mass_X_d_800_mass_pi_d_2_tau_pi_d_500
mass_X_d_800_mass_pi_d_2_tau_pi_d_5
mass_X_d_800_mass_pi_d_2_tau_pi_d_60
mass_X_d_800_mass_pi_d_5_tau_pi_d_0p001
mass_X_d_800_mass_pi_d_5_tau_pi_d_0p1
mass_X_d_800_mass_pi_d_5_tau_pi_d_100
mass_X_d_800_mass_pi_d_5_tau_pi_d_150
mass_X_d_800_mass_pi_d_5_tau_pi_d_1
mass_X_d_800_mass_pi_d_5_tau_pi_d_225
mass_X_d_800_mass_pi_d_5_tau_pi_d_25
mass_X_d_800_mass_pi_d_5_tau_pi_d_2
mass_X_d_800_mass_pi_d_5_tau_pi_d_300
mass_X_d_800_mass_pi_d_5_tau_pi_d_45
mass_X_d_800_mass_pi_d_5_tau_pi_d_500
mass_X_d_800_mass_pi_d_5_tau_pi_d_5
mass_X_d_800_mass_pi_d_5_tau_pi_d_60
