#cutset,Predicted,staterr,syserr,Observed
cut1,163.40,15.40,2.87, x 
cut2,31.99,5.03,0.90, x 
cut3,113.67,23.50,18.71, x 
cut4,21.62,8.41,1.54, x 
cut5,21.89,2.49,0.98, x 
cut6,14.08,1.93,0.34, x 
cut7,9.41,1.98,0.18, x 
cut8,4.43,0.84,0.17, x 
