cutname,ipXyShift,3dSigShift
cut0,1.1586973422501752,1.2833675564681726
cut1,1.1300300104400627,1.3309671694764862
cut10,1.1119654061369102,1.5445804533343632
cut2,1.1119654061369102,1.5247776365946635
cut3,1.1119654061369102,1.5628255886643052
cut4,1.1119654061369102,1.5641619220421699
cut5,1.1119654061369102,1.5628255886643052
cut6,1.1586973422501752,1.218026796589525
cut7,1.1586973422501752,1.218026796589525
cut8,1.1586973422501752,1.4082027812004931
cut9,1.1300300104400627,1.218026796589525
