name,cutname,mass_X_d,mass_pi_d,tau_pi_d,xsec_fb,acceptance,acceptance_shift_PdfUp,acceptance_shift_PdfDn,acceptance_shift_TriggerUp,acceptance_shift_JecUp,acceptance_shift_JecDn,acceptance_shift_PileupUp,acceptance_shift_PileupDn,acceptance_shift_MCStatUp,acceptance_shift_MCStatDn,"""nocut""","""HLT_PFHT900 == 1""","""jet_pt->size()>=4""","""ht4 > ht_min""","""met > met_min""","""ijs_basic.size() == 4""","""ijs_basic.back() == 3""","""GetPt(0) > pt0_min""","""GetPt(1) > pt1_min""","""GetPt(2) > pt2_min""","""GetPt(3) > pt3_min""","""(*pv_index)[0] == 0""","""abs((*pv_z)[0]) < 15.0""","""nEmerging >= 1""","""nEmerging >= nEmerging_min""","""PVTrackFraction > 0.1""",""""""
mass_X_d_2000_mass_pi_d_1_tau_pi_d_1,cut1,2000.0,1.0,1.0,0.0487065,0.0012664348909382976,0.0001531810661343795,-7.40884803539215e-05,-0.00018091922453604978,0.0,0.0,0.0001145968275317647,0.0001145968275317647,0.0006506360100070309,-0.0006506360100070309,2987.8330078125,2987.8330078125,2947.0810546875,2947.0810546875,2947.0810546875,2854.2265625,2572.302490234375,2572.302490234375,2572.302490234375,2572.302490234375,2511.315185546875,2466.1162109375,2455.267333984375,203.32325744628906,3.783895969390869,3.783895969390869,0.0
mass_X_d_2000_mass_pi_d_1_tau_pi_d_1,cut2,2000.0,1.0,1.0,0.0487065,0.0,0.0,0.0,0.0,0.0,0.0,0.0,0.0,0.0,-0.0,2987.8330078125,2987.8330078125,2947.0810546875,2947.0810546875,2947.0810546875,2853.70654296875,2570.801513671875,2570.801513671875,2570.801513671875,2570.801513671875,2509.814453125,2464.615478515625,2453.766357421875,30.17696189880371,,,0.0
mass_X_d_2000_mass_pi_d_1_tau_pi_d_1,cut3,2000.0,1.0,1.0,0.0487065,0.00030033945578969196,3.959947248409799e-05,-1.9153013147103412e-05,-4.290563369151e-05,0.0,-0.00030033945578969196,3.231460428477421e-05,3.231460428477421e-05,0.000317002587179861,-0.000317002587179861,2987.8330078125,2987.8330078125,2947.0810546875,2947.0810546875,278.7010192871094,275.74798583984375,254.55494689941406,254.55494689941406,254.55494689941406,254.55494689941406,248.23431396484375,245.47811889648438,244.00006103515625,0.8973641395568848,0.8973641395568848,0.8973641395568848,0.0
mass_X_d_2000_mass_pi_d_1_tau_pi_d_1,cut4,2000.0,1.0,1.0,0.0487065,0.0,0.0,0.0,0.0,0.0,0.0,0.0,0.0,0.0,-0.0,2987.8330078125,2987.8330078125,2947.0810546875,2947.0810546875,114.24569702148438,112.18820190429688,101.67893981933594,101.67893981933594,101.67893981933594,101.67893981933594,99.80268859863281,98.90713500976562,98.90713500976562,,,,0.0
mass_X_d_2000_mass_pi_d_1_tau_pi_d_1,cut5,2000.0,1.0,1.0,0.0487065,0.0009660954351486057,0.00021161619472835993,-0.00010235456131965951,-0.00013801361079366161,0.0,0.0,8.228216369861817e-05,8.228216369861817e-05,0.0005683579881293137,-0.0005683579881293137,2987.8330078125,2987.8330078125,2947.0810546875,2945.08642578125,2945.08642578125,2852.231689453125,2570.3076171875,2570.3076171875,2569.000732421875,2567.84814453125,2439.278564453125,2398.1435546875,2387.29443359375,197.55712890625,2.8865318298339844,2.8865318298339844,0.0
mass_X_d_2000_mass_pi_d_1_tau_pi_d_1,cut6,2000.0,1.0,1.0,0.0487065,0.0,0.0,0.0,0.0,0.0,0.0,0.0,0.0,0.0,-0.0,2987.8330078125,2987.8330078125,2947.0810546875,2947.0810546875,2947.0810546875,2854.2265625,2572.302490234375,2572.302490234375,2572.302490234375,2572.302490234375,2511.315185546875,2466.1162109375,2455.267333984375,25.244125366210938,,,0.0
mass_X_d_2000_mass_pi_d_1_tau_pi_d_1,cut7,2000.0,1.0,1.0,0.0487065,0.0,0.0,0.0,0.0,0.0,0.0,0.0,0.0,0.0,-0.0,2987.8330078125,2987.8330078125,2947.0810546875,2947.0810546875,2947.0810546875,2854.2265625,2572.302490234375,2572.302490234375,2572.302490234375,2572.302490234375,2511.315185546875,2466.1162109375,2455.267333984375,19.941131591796875,,,0.0
mass_X_d_2000_mass_pi_d_1_tau_pi_d_1,cut8,2000.0,1.0,1.0,0.0487065,0.0003119736240664858,6.901862969237681e-05,-3.338297572159899e-05,-4.456765488117741e-05,0.0,0.0,2.140043537793003e-05,2.140043537793003e-05,0.00032308219427434865,-0.00032308219427434865,2987.8330078125,2987.8330078125,2947.0810546875,2944.18896484375,2944.18896484375,2852.231689453125,2570.3076171875,2570.3076171875,2569.000732421875,2561.1337890625,2435.7216796875,2394.586669921875,2383.7373046875,90.60769653320312,0.9321250915527344,0.9321250915527344,0.0
