#cutset,Predicted,staterr,syserr,Observed
cut1,163.4,15.4,3.42, x 
cut2,31.99,5.03,1.42, x 
cut3,113.67,23.5,27.71, x 
cut4,21.62,8.41,4.28, x 
cut5,21.89,2.49,1.28, x 
cut6,14.08,1.93,0.56, x 
cut7,9.41,1.98,0.23, x 
cut8,4.43,0.84,0.29, x 
