mass_X_d_1000_mass_pi_d_2_tau_pi_d_150 0.00313051444837 -0.0034088625781
mass_X_d_1000_mass_pi_d_10_tau_pi_d_0p001 0.0 0.0
mass_X_d_1000_mass_pi_d_10_tau_pi_d_0p1 0.0 0.0
mass_X_d_1000_mass_pi_d_10_tau_pi_d_150 0.00156061012989 -0.00170427683615
mass_X_d_1000_mass_pi_d_10_tau_pi_d_1 0.00611586837806 -0.00667116968459
mass_X_d_1000_mass_pi_d_10_tau_pi_d_100 0.000858912020266 -0.000788629038674
mass_X_d_1000_mass_pi_d_10_tau_pi_d_225 0.000245197324029 -0.000224947029071
mass_X_d_1000_mass_pi_d_10_tau_pi_d_25 0.00052253634496 -0.000570752640648
mass_X_d_1000_mass_pi_d_10_tau_pi_d_60 0.000805779234058 -0.000880387931246
mass_X_d_1000_mass_pi_d_1_tau_pi_d_0p1 0.0 0.0
mass_X_d_1000_mass_pi_d_1_tau_pi_d_1 0.00297598691994 -0.00326036656322
mass_X_d_1000_mass_pi_d_10_tau_pi_d_45 0.00440505972464 -0.00480998897545
mass_X_d_1000_mass_pi_d_10_tau_pi_d_5 4.87825049633e-05 -5.31485215113e-05
mass_X_d_1000_mass_pi_d_2_tau_pi_d_1 0.00933426694737 -0.00855202126522
mass_X_d_1000_mass_pi_d_1_tau_pi_d_0p001 0.0 0.0
mass_X_d_1000_mass_pi_d_2_tau_pi_d_0p1 0.0 0.0
mass_X_d_1000_mass_pi_d_10_tau_pi_d_300 0.0110991604877 -0.0121301280303
mass_X_d_1000_mass_pi_d_1_tau_pi_d_45 0.000115720391507 -0.000125995863671
mass_X_d_1000_mass_pi_d_1_tau_pi_d_100 0.00189068107416 -0.00206060382046
mass_X_d_1000_mass_pi_d_1_tau_pi_d_300 0.00724927088582 -0.00791080249918
mass_X_d_1000_mass_pi_d_1_tau_pi_d_150 0.00171507635655 -0.00157307090636
mass_X_d_1000_mass_pi_d_2_tau_pi_d_0p001 0.0 0.0
mass_X_d_1000_mass_pi_d_1_tau_pi_d_225 0.00154121665624 -0.001404562461
mass_X_d_1000_mass_pi_d_1_tau_pi_d_25 0.00138558792922 -0.00126877790352
mass_X_d_1000_mass_pi_d_2_tau_pi_d_100 8.59889796567e-06 -8.15436893375e-06
mass_X_d_1000_mass_pi_d_1_tau_pi_d_60 0.00118313762976 -0.00129042732905
mass_X_d_1000_mass_pi_d_1_tau_pi_d_5 0.0011079928332 -0.00101373332185
mass_X_d_1000_mass_pi_d_2_tau_pi_d_25 0.000952895314416 -0.00087350362677
mass_X_d_1000_mass_pi_d_2_tau_pi_d_225 0.00273425103494 -0.00298572998401
mass_X_d_1000_mass_pi_d_2_tau_pi_d_300 0.00546192326936 -0.0050019789976
mass_X_d_1000_mass_pi_d_2_tau_pi_d_45 0.000295280398641 -0.000322407940699
mass_X_d_1000_mass_pi_d_2_tau_pi_d_5 0.00123937231641 -0.00135217492473
mass_X_d_1000_mass_pi_d_2_tau_pi_d_60 0.000620204189419 -0.000565947694071
mass_X_d_1000_mass_pi_d_5_tau_pi_d_0p001 0.0 0.0
mass_X_d_1000_mass_pi_d_5_tau_pi_d_25 0.000737685234798 -0.000805514668619
mass_X_d_1000_mass_pi_d_5_tau_pi_d_1 0.810501819019 -0.887462727355
mass_X_d_1000_mass_pi_d_5_tau_pi_d_100 0.000564491765669 -0.000517411552977
mass_X_d_1000_mass_pi_d_5_tau_pi_d_225 0.00469699774207 -0.00428924696846
mass_X_d_1000_mass_pi_d_5_tau_pi_d_150 0.00148395943968 -0.0013609002146
mass_X_d_1000_mass_pi_d_5_tau_pi_d_300 0.0105140257766 -0.0115199112497
mass_X_d_1000_mass_pi_d_5_tau_pi_d_0p1 0.0 0.0
mass_X_d_1000_mass_pi_d_5_tau_pi_d_5 0.00211206353515 -0.00193510543042
mass_X_d_1000_mass_pi_d_5_tau_pi_d_45 0.000705755149114 -0.000648047093812
mass_X_d_1000_mass_pi_d_5_tau_pi_d_60 0.000833292262993 -0.000909640106023
mass_X_d_1500_mass_pi_d_10_tau_pi_d_0p001 0.0 0.0
mass_X_d_1500_mass_pi_d_10_tau_pi_d_1 0.0469192016093 -0.0536963418818
mass_X_d_1500_mass_pi_d_10_tau_pi_d_0p1 0.0 0.0
mass_X_d_1500_mass_pi_d_10_tau_pi_d_100 0.000405182566077 -0.000352127139068
mass_X_d_1500_mass_pi_d_10_tau_pi_d_225 0.00570275142429 -0.0065480156217
mass_X_d_1500_mass_pi_d_10_tau_pi_d_150 0.00183461702604 -0.00159226957472
mass_X_d_1500_mass_pi_d_10_tau_pi_d_25 0.00122705841159 -0.00140245040999
mass_X_d_1500_mass_pi_d_10_tau_pi_d_300 0.0176936943789 -0.0203536363018
mass_X_d_1500_mass_pi_d_10_tau_pi_d_45 0.000835559070942 -0.000727435370611
mass_X_d_1500_mass_pi_d_1_tau_pi_d_150 0.00220183395081 -0.00251849888211
mass_X_d_1500_mass_pi_d_1_tau_pi_d_300 0.00528706188776 -0.00459310270142
mass_X_d_1500_mass_pi_d_1_tau_pi_d_25 0.000363021762861 -0.000317025232884
mass_X_d_1500_mass_pi_d_10_tau_pi_d_5 0.00468904304238 -0.00538993759878
mass_X_d_1500_mass_pi_d_1_tau_pi_d_225 0.00661954027879 -0.00575947497324
mass_X_d_1500_mass_pi_d_10_tau_pi_d_60 0.00523340088885 -0.00600927460513
mass_X_d_1500_mass_pi_d_1_tau_pi_d_0p001 0.0 0.0
mass_X_d_1500_mass_pi_d_1_tau_pi_d_1 0.0177045775126 -0.0154413776959
mass_X_d_1500_mass_pi_d_1_tau_pi_d_0p1 0.0 0.0
mass_X_d_1500_mass_pi_d_1_tau_pi_d_100 0.00275623792758 -0.00239831510458
mass_X_d_1500_mass_pi_d_1_tau_pi_d_45 0.00294727862422 -0.00337066719892
mass_X_d_1500_mass_pi_d_1_tau_pi_d_5 0.00156356468716 -0.00136258043786
mass_X_d_1500_mass_pi_d_1_tau_pi_d_60 0.00378373363155 -0.00329619356205
mass_X_d_1500_mass_pi_d_2_tau_pi_d_5 0.00127740927229 -0.00147346090224
mass_X_d_1500_mass_pi_d_5_tau_pi_d_1 0.0203625663024 -0.0176944003268
mass_X_d_1500_mass_pi_d_2_tau_pi_d_60 0.00408402029524 -0.00355033646939
mass_X_d_1500_mass_pi_d_2_tau_pi_d_45 0.00148235020352 -0.00169829862103
mass_X_d_1500_mass_pi_d_2_tau_pi_d_300 0.00307673692448 -0.00351862211249
mass_X_d_1500_mass_pi_d_5_tau_pi_d_0p1 0.0 0.0
mass_X_d_1500_mass_pi_d_5_tau_pi_d_0p001 0.0 0.0
mass_X_d_1500_mass_pi_d_5_tau_pi_d_25 0.00112155053167 -0.000977931314209
mass_X_d_1500_mass_pi_d_5_tau_pi_d_150 0.00063284089174 -0.000725711542476
mass_X_d_1500_mass_pi_d_5_tau_pi_d_225 0.00396753838328 -0.00345634478167
mass_X_d_1500_mass_pi_d_5_tau_pi_d_100 0.00442596861107 -0.00507390419963
mass_X_d_1500_mass_pi_d_5_tau_pi_d_300 0.00444013713698 -0.00385894182668
mass_X_d_1500_mass_pi_d_2_tau_pi_d_0p001 0.0 0.0
mass_X_d_1500_mass_pi_d_2_tau_pi_d_0p1 0.0 0.0
mass_X_d_1500_mass_pi_d_2_tau_pi_d_1 0.0153155417971 -0.0133888831129
mass_X_d_1500_mass_pi_d_2_tau_pi_d_100 0.000589262718601 -0.000681802467043
mass_X_d_1500_mass_pi_d_5_tau_pi_d_5 0.00310866141744 -0.00271169590973
mass_X_d_1500_mass_pi_d_5_tau_pi_d_60 0.00128193019825 -0.00146969988601
mass_X_d_2000_mass_pi_d_10_tau_pi_d_0p001 0.0 0.0
mass_X_d_2000_mass_pi_d_10_tau_pi_d_0p1 0.0 0.0
mass_X_d_2000_mass_pi_d_10_tau_pi_d_100 0.000943852166937 -0.00116452810312
mass_X_d_2000_mass_pi_d_10_tau_pi_d_1 0.0202730511767 -0.0164128182198
mass_X_d_2000_mass_pi_d_10_tau_pi_d_150 0.0179559702674 -0.0144648766272
mass_X_d_2000_mass_pi_d_10_tau_pi_d_225 0.00612939278094 -0.00494913218686
mass_X_d_1500_mass_pi_d_5_tau_pi_d_45 0.00111884204257 -0.000970982009885
mass_X_d_2000_mass_pi_d_10_tau_pi_d_25 0.00364953808047 -0.00292684853572
mass_X_d_2000_mass_pi_d_1_tau_pi_d_0p001 0.0 0.0
mass_X_d_2000_mass_pi_d_1_tau_pi_d_0p1 0.0 0.0
mass_X_d_2000_mass_pi_d_10_tau_pi_d_60 0.00503118594425 -0.00399297919785
mass_X_d_2000_mass_pi_d_1_tau_pi_d_5 0.00625906467992 -0.0050424227294
mass_X_d_2000_mass_pi_d_1_tau_pi_d_60 0.00183966906081 -0.00147290743323
mass_X_d_2000_mass_pi_d_2_tau_pi_d_0p001 0.0 0.0
mass_X_d_2000_mass_pi_d_2_tau_pi_d_0p1 0.0 0.0
mass_X_d_2000_mass_pi_d_1_tau_pi_d_300 0.0048996663822 -0.00392175104544
mass_X_d_2000_mass_pi_d_1_tau_pi_d_150 0.0130621472888 -0.016294423918
mass_X_d_2000_mass_pi_d_1_tau_pi_d_25 0.0034786183268 -0.00438342955446
mass_X_d_2000_mass_pi_d_1_tau_pi_d_225 0.0153006923211 -0.012325879537
mass_X_d_2000_mass_pi_d_1_tau_pi_d_1 0.00955258032836 -0.00770186943379
mass_X_d_2000_mass_pi_d_1_tau_pi_d_45 0.00584579597423 -0.00466492935753
mass_X_d_2000_mass_pi_d_1_tau_pi_d_100 0.00103781438673 -0.00128287024535
mass_X_d_1500_mass_pi_d_2_tau_pi_d_150 0.00576191101594 -0.00498409936698
mass_X_d_1500_mass_pi_d_2_tau_pi_d_225 0.0120777981004 -0.0138841697298
mass_X_d_1500_mass_pi_d_2_tau_pi_d_25 0.00425428120372 -0.00369885761377
mass_X_d_2000_mass_pi_d_10_tau_pi_d_300 0.0335264399645 -0.0416977140031
mass_X_d_2000_mass_pi_d_10_tau_pi_d_45 0.00255914318823 -0.00207651511533
mass_X_d_2000_mass_pi_d_2_tau_pi_d_45 0.00636299904584 -0.00789388940801
mass_X_d_2000_mass_pi_d_2_tau_pi_d_5 0.0096694228694 -0.0077123150961
mass_X_d_2000_mass_pi_d_2_tau_pi_d_60 0.00429501523448 -0.00540002181042
mass_X_d_2000_mass_pi_d_2_tau_pi_d_300 0.00155418173935 -0.00124545841328
mass_X_d_2000_mass_pi_d_5_tau_pi_d_0p001 0.0 0.0
mass_X_d_2000_mass_pi_d_5_tau_pi_d_0p1 0.0 0.0
mass_X_d_2000_mass_pi_d_5_tau_pi_d_1 0.0560813511454 -0.0455528435127
mass_X_d_2000_mass_pi_d_5_tau_pi_d_100 0.00244227668613 -0.00194405344796
mass_X_d_2000_mass_pi_d_5_tau_pi_d_150 0.00120707585849 -0.001508515175
mass_X_d_2000_mass_pi_d_5_tau_pi_d_300 0.00588283443728 -0.00473667412429
mass_X_d_2000_mass_pi_d_5_tau_pi_d_225 0.00678719447631 -0.00546786780546
mass_X_d_2000_mass_pi_d_5_tau_pi_d_5 0.00252033728351 -0.00312337669103
mass_X_d_2000_mass_pi_d_5_tau_pi_d_45 0.0067359752716 -0.00841827003641
mass_X_d_2000_mass_pi_d_5_tau_pi_d_25 0.00745329147594 -0.00930034555376
mass_X_d_2000_mass_pi_d_5_tau_pi_d_60 0.000711657864483 -0.00089364148924
mass_X_d_400_mass_pi_d_10_tau_pi_d_1 0.00368147906162 -0.00352330596803
mass_X_d_400_mass_pi_d_10_tau_pi_d_0p001 0.0 0.0
mass_X_d_400_mass_pi_d_10_tau_pi_d_150 0.0171372400728 -0.0179149451977
mass_X_d_400_mass_pi_d_10_tau_pi_d_225 0.00325595877767 -0.00311361717034
mass_X_d_400_mass_pi_d_10_tau_pi_d_0p1 0.0 0.0
mass_X_d_2000_mass_pi_d_10_tau_pi_d_5 0.00123640964822 -0.000978451715856
mass_X_d_400_mass_pi_d_10_tau_pi_d_25 0.0201337323028 -0.021028026504
mass_X_d_2000_mass_pi_d_2_tau_pi_d_1 0.0841442475178 -0.103761462235
mass_X_d_2000_mass_pi_d_2_tau_pi_d_100 0.00223934284718 -0.00280156421595
mass_X_d_400_mass_pi_d_10_tau_pi_d_45 0.00746736922404 -0.00779629269816
mass_X_d_400_mass_pi_d_10_tau_pi_d_300 0.0372992113349 -0.0389799742783
mass_X_d_2000_mass_pi_d_2_tau_pi_d_150 0.00799707447943 -0.00988153464263
mass_X_d_2000_mass_pi_d_2_tau_pi_d_225 0.0115754853912 -0.0142550455834
mass_X_d_400_mass_pi_d_10_tau_pi_d_100 0.00671521810918 -0.00702254469473
mass_X_d_2000_mass_pi_d_2_tau_pi_d_25 0.00754492558088 -0.00609388013824
mass_X_d_400_mass_pi_d_10_tau_pi_d_5 0.0105196545613 -0.010991767706
mass_X_d_400_mass_pi_d_10_tau_pi_d_60 0.00763561623939 -0.00797667459688
mass_X_d_400_mass_pi_d_1_tau_pi_d_0p1 0.0 0.0
mass_X_d_400_mass_pi_d_1_tau_pi_d_0p001 0.0 0.0
mass_X_d_400_mass_pi_d_1_tau_pi_d_1 0.0383551750531 -0.0401281115374
mass_X_d_400_mass_pi_d_1_tau_pi_d_150 0.0827072932766 -0.0863562739212
mass_X_d_400_mass_pi_d_1_tau_pi_d_100 0.00464607578054 -0.00485121667936
mass_X_d_400_mass_pi_d_1_tau_pi_d_300 0.0 0.0
mass_X_d_400_mass_pi_d_1_tau_pi_d_225 0.0 0.0
mass_X_d_400_mass_pi_d_1_tau_pi_d_25 0.0087887216286 -0.00917702918448
mass_X_d_400_mass_pi_d_1_tau_pi_d_45 0.00942747424009 -0.00984054240833
mass_X_d_400_mass_pi_d_2_tau_pi_d_1 0.00313981257724 -0.00300717228602
mass_X_d_400_mass_pi_d_2_tau_pi_d_100 0.00526455609729 -0.00549932590252
mass_X_d_400_mass_pi_d_2_tau_pi_d_150 0.01243415162 -0.0129834832376
mass_X_d_400_mass_pi_d_2_tau_pi_d_225 0.0 0.0
mass_X_d_400_mass_pi_d_2_tau_pi_d_300 0.0 0.0
mass_X_d_400_mass_pi_d_2_tau_pi_d_45 0.00561159447017 -0.00586710898779
mass_X_d_400_mass_pi_d_2_tau_pi_d_5 0.00875817489152 -0.00915360204777
mass_X_d_400_mass_pi_d_2_tau_pi_d_25 0.00647571111567 -0.00676694490148
mass_X_d_400_mass_pi_d_2_tau_pi_d_60 0.00465078363505 -0.00486132496258
mass_X_d_400_mass_pi_d_5_tau_pi_d_0p001 0.0 0.0
mass_X_d_400_mass_pi_d_2_tau_pi_d_0p001 0.0 0.0
mass_X_d_400_mass_pi_d_5_tau_pi_d_1 0.0 0.0
mass_X_d_400_mass_pi_d_5_tau_pi_d_0p1 0.0 0.0
mass_X_d_400_mass_pi_d_5_tau_pi_d_150 0.017295540416 -0.0180589484265
mass_X_d_400_mass_pi_d_5_tau_pi_d_100 0.00919182145551 -0.0096012527715
mass_X_d_400_mass_pi_d_5_tau_pi_d_225 0.0 0.0
mass_X_d_400_mass_pi_d_1_tau_pi_d_5 0.00559531607917 -0.00584841230637
mass_X_d_400_mass_pi_d_1_tau_pi_d_60 0.00531018339809 -0.00554264459488
mass_X_d_400_mass_pi_d_2_tau_pi_d_0p1 0.0 0.0
mass_X_d_400_mass_pi_d_5_tau_pi_d_300 0.0 0.0
mass_X_d_400_mass_pi_d_5_tau_pi_d_25 0.00378519955643 -0.00395311483957
mass_X_d_400_mass_pi_d_5_tau_pi_d_60 0.00933139133097 -0.00974837852236
mass_X_d_400_mass_pi_d_5_tau_pi_d_45 0.108220201019 -0.113076157557
mass_X_d_600_mass_pi_d_10_tau_pi_d_0p001 0.0 0.0
mass_X_d_600_mass_pi_d_10_tau_pi_d_0p1 0.0 0.0
mass_X_d_600_mass_pi_d_10_tau_pi_d_1 0.00623258491175 -0.00588698378993
mass_X_d_400_mass_pi_d_5_tau_pi_d_5 0.0173919538274 -0.0181700148314
mass_X_d_600_mass_pi_d_10_tau_pi_d_100 0.00460359270715 -0.00487919554789
mass_X_d_600_mass_pi_d_1_tau_pi_d_0p001 0.0 0.0
mass_X_d_600_mass_pi_d_10_tau_pi_d_5 0.00241573326819 -0.00255856076245
mass_X_d_600_mass_pi_d_10_tau_pi_d_45 0.00638847858569 -0.00676896835289
mass_X_d_600_mass_pi_d_10_tau_pi_d_60 0.00717012900468 -0.00759447808687
mass_X_d_600_mass_pi_d_1_tau_pi_d_0p1 0.0 0.0
mass_X_d_600_mass_pi_d_1_tau_pi_d_225 0.0 0.0
mass_X_d_600_mass_pi_d_1_tau_pi_d_45 0.00943163561864 -0.00999572046502
mass_X_d_600_mass_pi_d_1_tau_pi_d_5 0.00309268600576 -0.00327819973913
mass_X_d_600_mass_pi_d_1_tau_pi_d_25 0.00116317199441 -0.0012320489484
mass_X_d_600_mass_pi_d_1_tau_pi_d_300 0.0177656612495 -0.0188191753677
mass_X_d_600_mass_pi_d_1_tau_pi_d_60 0.00296610796045 -0.0031444039937
mass_X_d_600_mass_pi_d_2_tau_pi_d_0p001 0.0 0.0
mass_X_d_600_mass_pi_d_2_tau_pi_d_1 0.0 0.0
mass_X_d_600_mass_pi_d_2_tau_pi_d_0p1 0.0 0.0
mass_X_d_600_mass_pi_d_2_tau_pi_d_5 0.000347674388952 -0.000326797837534
mass_X_d_600_mass_pi_d_10_tau_pi_d_300 0.0138613647687 -0.014712861654
mass_X_d_600_mass_pi_d_10_tau_pi_d_25 0.00716415745085 -0.0075913025703
mass_X_d_600_mass_pi_d_10_tau_pi_d_150 0.0147245935196 -0.0156013339844
mass_X_d_600_mass_pi_d_10_tau_pi_d_225 0.0111945373612 -0.011854843602
mass_X_d_600_mass_pi_d_1_tau_pi_d_1 0.0 0.0
mass_X_d_600_mass_pi_d_2_tau_pi_d_60 0.00801877518817 -0.00849460594162
mass_X_d_600_mass_pi_d_2_tau_pi_d_225 0.00889816805349 -0.00942747765153
mass_X_d_600_mass_pi_d_1_tau_pi_d_100 0.000725893202721 -0.000768351489347
mass_X_d_600_mass_pi_d_2_tau_pi_d_25 0.00341643337308 -0.00362119153761
mass_X_d_600_mass_pi_d_2_tau_pi_d_300 0.0115857648899 -0.0122770892319
mass_X_d_600_mass_pi_d_2_tau_pi_d_45 0.00677004535203 -0.00716953069052
mass_X_d_600_mass_pi_d_1_tau_pi_d_150 0.0691549542029 -0.0734738514747
mass_X_d_600_mass_pi_d_2_tau_pi_d_100 0.00386559415837 -0.00409830312854
mass_X_d_600_mass_pi_d_2_tau_pi_d_150 0.00540424908873 -0.00572795455984
mass_X_d_600_mass_pi_d_5_tau_pi_d_1 0.0 0.0
mass_X_d_600_mass_pi_d_5_tau_pi_d_60 0.00627432972463 -0.00664304097951
mass_X_d_600_mass_pi_d_5_tau_pi_d_0p1 0.0 0.0
mass_X_d_800_mass_pi_d_10_tau_pi_d_0p001 0.0 0.0
mass_X_d_800_mass_pi_d_10_tau_pi_d_0p1 0.0 0.0
mass_X_d_600_mass_pi_d_5_tau_pi_d_100 0.00578117715694 -0.00612005127078
mass_X_d_600_mass_pi_d_5_tau_pi_d_150 0.00316296001432 -0.00335012696518
mass_X_d_600_mass_pi_d_5_tau_pi_d_225 0.0197770630586 -0.0209618814985
mass_X_d_600_mass_pi_d_5_tau_pi_d_0p001 0.0 0.0
mass_X_d_800_mass_pi_d_10_tau_pi_d_1 0.00361957108037 -0.00388961195613
mass_X_d_600_mass_pi_d_5_tau_pi_d_25 0.00309252548191 -0.00327455847883
mass_X_d_800_mass_pi_d_10_tau_pi_d_25 0.0016312760242 -0.00175070070366
mass_X_d_800_mass_pi_d_10_tau_pi_d_225 0.00101474503912 -0.00109001498018
mass_X_d_800_mass_pi_d_10_tau_pi_d_300 0.00114827275632 -0.0012339383636
mass_X_d_800_mass_pi_d_10_tau_pi_d_100 0.0026878428106 -0.00288559940368
mass_X_d_800_mass_pi_d_10_tau_pi_d_150 0.00268478552858 -0.00288389632018
mass_X_d_800_mass_pi_d_10_tau_pi_d_60 0.00498944042003 -0.00535702088726
mass_X_d_800_mass_pi_d_1_tau_pi_d_0p001 0.0 0.0
mass_X_d_800_mass_pi_d_10_tau_pi_d_45 0.00024057628743 -0.000258551352471
mass_X_d_800_mass_pi_d_10_tau_pi_d_5 0.00326665476997 -0.00350835974596
mass_X_d_600_mass_pi_d_5_tau_pi_d_300 0.00930721750641 -0.00984629935124
mass_X_d_800_mass_pi_d_1_tau_pi_d_100 0.00349759634213 -0.00376651545464
mass_X_d_600_mass_pi_d_5_tau_pi_d_5 0.00208217811953 -0.00220602609643
mass_X_d_600_mass_pi_d_5_tau_pi_d_45 0.0122692705381 -0.0129938228369
mass_X_d_800_mass_pi_d_1_tau_pi_d_0p1 0.0 0.0
mass_X_d_800_mass_pi_d_1_tau_pi_d_1 0.00598544447768 -0.00556459806181
mass_X_d_800_mass_pi_d_1_tau_pi_d_150 0.00503113156438 -0.00540632601192
mass_X_d_800_mass_pi_d_1_tau_pi_d_225 0.0112787912624 -0.0121192398044
mass_X_d_800_mass_pi_d_1_tau_pi_d_25 0.0021728039096 -0.00233290959587
mass_X_d_800_mass_pi_d_1_tau_pi_d_300 0.0269276824479 -0.0289248737109
mass_X_d_800_mass_pi_d_2_tau_pi_d_0p001 0.0 0.0
mass_X_d_800_mass_pi_d_1_tau_pi_d_45 0.000384285559641 -0.000413290890059
mass_X_d_800_mass_pi_d_1_tau_pi_d_5 0.000219757840387 -0.000205191504832
mass_X_d_800_mass_pi_d_1_tau_pi_d_60 0.000178404747701 -0.000165618011112
mass_X_d_800_mass_pi_d_2_tau_pi_d_0p1 0.0 0.0
mass_X_d_800_mass_pi_d_2_tau_pi_d_25 1.4011835376e-05 -1.29672024085e-05
mass_X_d_800_mass_pi_d_2_tau_pi_d_45 0.00103538544902 -0.00111382552861
mass_X_d_800_mass_pi_d_2_tau_pi_d_300 0.00931960687771 -0.0100159529321
mass_X_d_800_mass_pi_d_2_tau_pi_d_5 0.00124155233358 -0.00133522904699
mass_X_d_800_mass_pi_d_5_tau_pi_d_0p001 0.0 0.0
mass_X_d_800_mass_pi_d_2_tau_pi_d_225 0.00594673552805 -0.00639346070385
mass_X_d_800_mass_pi_d_2_tau_pi_d_1 0.00191550986941 -0.00205814385927
mass_X_d_800_mass_pi_d_2_tau_pi_d_100 0.00472963504875 -0.0050861582803
mass_X_d_800_mass_pi_d_5_tau_pi_d_0p1 0.0 0.0
mass_X_d_800_mass_pi_d_5_tau_pi_d_1 0.00994755409292 -0.00925916187269
mass_X_d_800_mass_pi_d_2_tau_pi_d_150 0.00211162476947 -0.001964635796
mass_X_d_800_mass_pi_d_5_tau_pi_d_100 0.00101331322611 -0.000940922188966
mass_X_d_800_mass_pi_d_5_tau_pi_d_225 0.00018429372558 -0.000197657378058
mass_X_d_800_mass_pi_d_5_tau_pi_d_25 0.000729862994959 -0.000676866999752
mass_X_d_800_mass_pi_d_5_tau_pi_d_150 0.0059322468708 -0.00636722677874
mass_X_d_800_mass_pi_d_2_tau_pi_d_60 0.00258712134669 -0.0027799439915
mass_X_d_800_mass_pi_d_5_tau_pi_d_5 0.00023326917201 -0.00025102859645
mass_X_d_800_mass_pi_d_5_tau_pi_d_300 0.00383014708638 -0.00411031977894
mass_X_d_800_mass_pi_d_5_tau_pi_d_45 0.00066651503003 -0.000620318102249
